[
{
    "model": "common.componentinfo",
    "pk": 1,
    "fields": {
        "is_valid": true,
        "manager_name": "xscore",
        "traceback": "",
        "data_args": "",
        "data_kwargs": "",
        "last_updated": "2020-01-07T09:01:43.101Z",
        "countries": [
            1,
            2,
            3
        ]
    }
},
{
    "model": "common.componentinfo",
    "pk": 2,
    "fields": {
        "is_valid": true,
        "manager_name": "flashscore",
        "traceback": "",
        "data_args": "",
        "data_kwargs": "",
        "last_updated": "2020-01-07T09:09:41.236Z",
        "countries": [
            1
        ]
    }
},
{
    "model": "common.componentinfo",
    "pk": 3,
    "fields": {
        "is_valid": true,
        "manager_name": "betfair",
        "traceback": "",
        "data_args": "",
        "data_kwargs": "",
        "last_updated": "2020-01-08T15:41:35.783Z",
        "countries": [
            1,
            2
        ]
    }
}
]
