[
{
    "model": "data_collectors.eventrunnertype",
    "pk": 1,
    "fields": {
        "event_type": 3,
        "betfair_id": 110503,
        "runner_name": "No",
        "frontend_name": null,
        "xg_clf_alias": "False",
        "is_active": true
    }
},
{
    "model": "data_collectors.eventrunnertype",
    "pk": 2,
    "fields": {
        "event_type": 3,
        "betfair_id": 30246,
        "runner_name": "Yes",
        "frontend_name": null,
        "xg_clf_alias": "True",
        "is_active": true
    }
},
{
    "model": "data_collectors.eventrunnertype",
    "pk": 3,
    "fields": {
        "event_type": 4,
        "betfair_id": 47973,
        "runner_name": "Over 2.5 Goals",
        "frontend_name": "Over 2.5 Goals",
        "xg_clf_alias": "True",
        "is_active": true
    }
},
{
    "model": "data_collectors.eventrunnertype",
    "pk": 4,
    "fields": {
        "event_type": 4,
        "betfair_id": 47972,
        "runner_name": "Under 2.5 Goals",
        "frontend_name": "Under 2.5 Goals",
        "xg_clf_alias": "False",
        "is_active": true
    }
},
{
    "model": "data_collectors.eventrunnertype",
    "pk": 5,
    "fields": {
        "event_type": 5,
        "betfair_id": 1221386,
        "runner_name": "Over 1.5 Goals",
        "frontend_name": "HT Over 1.5",
        "xg_clf_alias": "True",
        "is_active": true
    }
},
{
    "model": "data_collectors.eventrunnertype",
    "pk": 6,
    "fields": {
        "event_type": 5,
        "betfair_id": 1221385,
        "runner_name": "Under 1.5 Goals",
        "frontend_name": "HT Under 1.5",
        "xg_clf_alias": "False",
        "is_active": true
    }
},
{
    "model": "data_collectors.eventrunnertype",
    "pk": 7,
    "fields": {
        "event_type": 6,
        "betfair_id": 1,
        "runner_name": "0:0",
        "frontend_name": null,
        "xg_clf_alias": "0:0",
        "is_active": true
    }
},
{
    "model": "data_collectors.eventrunnertype",
    "pk": 8,
    "fields": {
        "event_type": 6,
        "betfair_id": 4,
        "runner_name": "0:1",
        "frontend_name": null,
        "xg_clf_alias": "0:1",
        "is_active": true
    }
},
{
    "model": "data_collectors.eventrunnertype",
    "pk": 9,
    "fields": {
        "event_type": 6,
        "betfair_id": 9,
        "runner_name": "0:2",
        "frontend_name": null,
        "xg_clf_alias": "0:2",
        "is_active": true
    }
},
{
    "model": "data_collectors.eventrunnertype",
    "pk": 10,
    "fields": {
        "event_type": 6,
        "betfair_id": 16,
        "runner_name": "0:3",
        "frontend_name": null,
        "xg_clf_alias": "0 - 3",
        "is_active": true
    }
},
{
    "model": "data_collectors.eventrunnertype",
    "pk": 11,
    "fields": {
        "event_type": 6,
        "betfair_id": 3,
        "runner_name": "1:1",
        "frontend_name": null,
        "xg_clf_alias": "1:1",
        "is_active": true
    }
},
{
    "model": "data_collectors.eventrunnertype",
    "pk": 12,
    "fields": {
        "event_type": 6,
        "betfair_id": 8,
        "runner_name": "1:2",
        "frontend_name": null,
        "xg_clf_alias": "1: 2",
        "is_active": true
    }
},
{
    "model": "data_collectors.eventrunnertype",
    "pk": 13,
    "fields": {
        "event_type": 6,
        "betfair_id": 15,
        "runner_name": "1:3",
        "frontend_name": null,
        "xg_clf_alias": "1:3",
        "is_active": true
    }
},
{
    "model": "data_collectors.eventrunnertype",
    "pk": 14,
    "fields": {
        "event_type": 6,
        "betfair_id": 6,
        "runner_name": "2:1",
        "frontend_name": null,
        "xg_clf_alias": "2:1",
        "is_active": true
    }
},
{
    "model": "data_collectors.eventrunnertype",
    "pk": 15,
    "fields": {
        "event_type": 6,
        "betfair_id": 7,
        "runner_name": "2:2",
        "frontend_name": null,
        "xg_clf_alias": "2:2",
        "is_active": true
    }
},
{
    "model": "data_collectors.eventrunnertype",
    "pk": 16,
    "fields": {
        "event_type": 6,
        "betfair_id": 14,
        "runner_name": "2:3",
        "frontend_name": null,
        "xg_clf_alias": "2:3",
        "is_active": true
    }
},
{
    "model": "data_collectors.eventrunnertype",
    "pk": 17,
    "fields": {
        "event_type": 6,
        "betfair_id": 10,
        "runner_name": "3: 0",
        "frontend_name": null,
        "xg_clf_alias": "3:0",
        "is_active": true
    }
},
{
    "model": "data_collectors.eventrunnertype",
    "pk": 18,
    "fields": {
        "event_type": 6,
        "betfair_id": 11,
        "runner_name": "3:1",
        "frontend_name": null,
        "xg_clf_alias": "3:1",
        "is_active": true
    }
},
{
    "model": "data_collectors.eventrunnertype",
    "pk": 19,
    "fields": {
        "event_type": 6,
        "betfair_id": 12,
        "runner_name": "3:2",
        "frontend_name": null,
        "xg_clf_alias": "3:2",
        "is_active": true
    }
},
{
    "model": "data_collectors.eventrunnertype",
    "pk": 20,
    "fields": {
        "event_type": 6,
        "betfair_id": 13,
        "runner_name": "3: 3",
        "frontend_name": null,
        "xg_clf_alias": "3:3",
        "is_active": true
    }
},
{
    "model": "data_collectors.eventrunnertype",
    "pk": 21,
    "fields": {
        "event_type": 6,
        "betfair_id": 2,
        "runner_name": "1:0",
        "frontend_name": null,
        "xg_clf_alias": "1:0",
        "is_active": true
    }
},
{
    "model": "data_collectors.eventrunnertype",
    "pk": 22,
    "fields": {
        "event_type": 6,
        "betfair_id": 5,
        "runner_name": "2:0",
        "frontend_name": null,
        "xg_clf_alias": "2:0",
        "is_active": true
    }
},
{
    "model": "data_collectors.eventrunnertype",
    "pk": 25,
    "fields": {
        "event_type": 8,
        "betfair_id": 58805,
        "runner_name": "The Draw",
        "frontend_name": null,
        "xg_clf_alias": "0",
        "is_active": true
    }
},
{
    "model": "data_collectors.eventrunnertype",
    "pk": 26,
    "fields": {
        "event_type": 8,
        "betfair_id": null,
        "runner_name": "Home Team",
        "frontend_name": null,
        "xg_clf_alias": "1",
        "is_active": true
    }
},
{
    "model": "data_collectors.eventrunnertype",
    "pk": 27,
    "fields": {
        "event_type": 8,
        "betfair_id": null,
        "runner_name": "Away Team",
        "frontend_name": null,
        "xg_clf_alias": "2",
        "is_active": true
    }
}
]
